mun;cluster
110030;3
120020;4
120020;1
120020;4
120040;1
120040;1
120040;1
120040;4
120040;1
120050;4
120060;4
130190;1
130250;1
130260;4
130260;1
130260;1
130260;1
130260;2
130260;1
130420;1
150060;1
150140;1
150140;1
150140;1
150140;2
150553;1
150553;2
150680;1
160030;1
160030;1
160030;2
170210;2
170210;2
170210;2
171820;1
172100;1
172100;3
172100;1
172100;2
172100;1
172100;2
172100;1
172100;2
172100;4
172100;1
210140;3
210160;1
211130;3
211130;3
211130;3
211130;3
211130;2
211130;2
220770;3
221100;3
221100;3
221100;3
221100;2
221100;3
221100;2
221100;2
221100;3
221100;1
221100;3
230100;2
230250;1
230250;2
230370;1
230370;2
230370;3
230370;2
230410;1
230420;2
230420;1
230440;3
230440;2
230440;3
230440;3
230440;3
230440;3
230440;3
230440;2
230440;2
230440;3
230540;1
230540;1
230550;3
230640;1
230765;2
230765;3
230765;3
230765;3
231180;3
231290;3
231290;3
231330;3
231330;1
231330;1
231330;2
240450;1
240800;1
240800;2
240800;2
240800;1
240800;2
240800;3
240810;3
240810;3
240810;3
240810;3
240810;1
240810;3
240810;3
250060;3
250400;3
250480;3
250750;3
250750;3
250750;3
250750;3
250750;3
250750;3
250750;3
250750;3
250750;3
250970;4
250970;1
260010;2
260170;4
260170;1
260290;3
260290;2
260290;3
260290;1
260290;2
260290;3
260345;2
260600;4
260600;1
260650;4
260680;3
260790;2
260890;4
260960;4
260960;1
260960;2
261070;2
261090;4
261110;3
261110;3
261160;4
261160;1
261160;3
261160;4
261160;2
261160;1
261160;3
261160;3
261220;3
261220;3
261450;2
261620;4
261640;2
261640;1
270030;4
270030;1
270030;3
270030;3
270030;4
270030;1
270030;3
270030;3
270030;3
270330;4
270430;3
270430;2
270430;3
270430;3
270430;3
270430;3
270430;2
270430;3
270500;2
270630;2
270770;3
280030;3
280030;2
280030;2
280030;3
280290;4
280740;4
290320;1
290320;2
290320;3
290460;1
290930;3
291080;2
291080;2
291080;2
291080;3
291080;2
291170;1
291360;2
291360;2
291360;1
291460;2
291480;3
291480;2
291480;4
291480;1
291750;2
291955;1
292200;2
292530;2
292740;3
292740;2
292740;2
292740;3
292740;3
292925;1
293135;1
293330;1
310150;1
310160;2
310160;1
310340;4
310350;2
310350;1
310350;1
310400;2
310400;2
310400;3
310420;1
310560;2
310590;2
310620;2
310620;2
310620;2
310620;2
310620;3
310620;1
310620;3
310670;2
310670;2
310670;2
310670;2
310730;3
310740;2
310740;2
310900;1
311070;1
311120;1
311340;2
311530;1
311530;1
311660;1
311800;2
311860;2
311860;3
311860;1
311860;3
311910;2
311910;1
311910;3
311930;2
311940;3
311940;1
311940;1
311940;2
312090;1
312090;2
312090;1
312090;3
312230;2
312230;2
312230;3
312230;2
312230;3
312410;3
312570;3
312610;2
312610;3
312710;2
312710;2
312770;2
312770;2
312770;1
312770;1
312980;2
312980;3
312980;1
312980;3
313120;1
313130;2
313130;4
313130;1
313130;1
313130;3
313130;2
313130;3
313170;2
313240;2
313250;2
313270;2
313380;2
313380;2
313380;1
313420;1
313420;2
313420;1
313420;2
313510;1
313510;2
313510;3
313520;1
313520;1
313620;2
313620;3
313630;2
313630;1
313665;2
313670;2
313670;2
313670;3
313670;1
313670;3
313720;1
313720;2
313760;2
313760;1
313760;3
313820;2
313820;2
313840;1
313880;2
313940;2
313940;2
314070;2
314110;2
314110;3
314310;2
314310;1
314330;4
314330;1
314330;3
314330;3
314390;3
314390;1
314390;3
314400;1
314480;1
314520;2
314520;2
314520;3
314690;1
314700;3
314700;1
314700;1
314700;2
314710;2
314710;1
314710;3
314740;2
314790;2
314790;2
314790;2
314790;1
314800;2
314800;3
314800;2
314800;3
314810;2
314810;3
314930;2
314930;2
314930;2
315120;1
315120;2
315140;2
315200;2
315200;1
315200;3
315210;2
315280;1
315460;2
315460;1
315460;3
315670;2
315670;3
315780;2
315780;1
315780;3
316110;1
316210;2
316250;2
316470;2
316470;1
316553;2
316553;1
316553;2
316720;2
316720;3
316720;1
316720;3
316860;2
316860;1
316870;4
316870;1
316870;1
316930;2
316940;2
316940;2
316970;2
316990;2
316990;2
316990;4
316990;1
316990;2
317010;2
317010;2
317010;1
317010;2
317010;1
317010;2
317020;2
317020;2
317020;2
317020;2
317020;2
317020;3
317020;2
317040;2
317040;1
317070;2
317080;2
317080;1
317120;2
317120;1
317130;2
317200;2
317200;1
320010;2
320060;3
320060;4
320060;1
320090;1
320120;2
320120;2
320120;3
320120;4
320120;1
320120;3
320130;2
320130;1
320130;2
320130;1
320130;4
320130;1
320130;3
320130;3
320150;2
320240;2
320240;3
320320;4
320320;3
320320;3
320405;1
320490;3
320490;3
320500;2
320500;3
320500;1
320500;2
320500;2
320500;3
320500;2
320500;4
320500;3
320510;1
320510;4
320520;2
320520;4
320520;2
320520;1
320520;3
320520;1
320520;1
320520;4
320520;3
320530;3
320530;4
320530;1
320530;1
320530;4
320530;1
320530;4
320530;3
330010;2
330010;2
330010;2
330020;2
330023;2
330030;2
330040;2
330045;2
330060;1
330060;2
330070;3
330070;3
330070;2
330080;1
330100;3
330100;3
330100;3
330100;1
330100;4
330100;1
330130;2
330150;2
330170;2
330170;3
330170;2
330170;2
330187;1
330220;1
330220;1
330220;4
330220;1
330240;2
330240;2
330240;2
330270;2
330270;2
330280;2
330285;1
330310;1
330330;2
330330;2
330330;3
330330;2
330330;1
330340;2
330350;2
330350;2
330411;2
330420;3
330420;1
330452;3
330452;1
330452;3
330455;2
330455;2
330455;2
330455;2
330455;3
330455;2
330455;1
330455;3
330455;3
330470;1
330475;2
330490;2
330490;2
330490;3
330490;2
330490;4
330490;1
330490;2
330490;2
330510;2
330510;2
330550;2
330600;1
330610;3
330610;2
330610;2
330630;2
330630;1
330630;2
330630;3
350010;2
350010;3
350030;1
350070;1
350160;2
350160;2
350160;2
350160;3
350170;2
350190;2
350210;1
350210;1
350210;3
350210;1
350210;4
350210;1
350250;2
350280;2
350280;2
350280;2
350280;3
350320;2
350320;3
350320;1
350320;2
350320;4
350320;1
350330;2
350330;2
350400;2
350400;3
350410;3
350410;2
350550;2
350550;1
350550;1
350550;2
350570;2
350590;1
350600;2
350600;2
350600;2
350600;2
350600;2
350600;1
350610;1
350610;2
350650;1
350650;3
350650;2
350650;1
350650;3
350780;1
350810;3
350850;2
350920;2
350950;2
350950;2
350950;2
350950;2
350950;2
350950;2
350950;2
350950;3
351000;1
351040;2
351050;2
351050;3
351050;2
351050;3
351060;2
351060;2
351060;3
351080;2
351100;1
351110;1
351110;3
351220;2
351300;2
351340;3
351340;2
351350;2
351370;2
351380;2
351440;1
351500;2
351518;2
351520;1
351550;2
351550;2
351550;2
351620;2
351620;2
351630;2
351630;3
351640;3
351670;1
351740;1
351740;4
351740;1
351740;3
351820;1
351820;2
351840;2
351840;2
351870;2
351870;2
351880;2
351880;2
351880;3
351880;2
351880;2
351880;3
351907;1
351907;2
351907;2
351907;2
351907;2
351907;1
351907;3
351960;1
351960;1
352040;2
352040;3
352044;1
352044;2
352050;2
352100;1
352210;2
352210;1
352220;2
352250;2
352260;1
352270;2
352270;3
352310;2
352390;2
352390;2
352410;1
352410;1
352410;1
352410;1
352440;2
352460;1
352470;2
352480;3
352480;2
352480;1
352480;3
352500;1
352510;2
352510;3
352510;1
352530;2
352530;2
352590;2
352590;3
352670;1
352670;2
352690;3
352690;3
352690;1
352690;3
352710;1
352710;2
352710;3
352720;1
352720;2
352850;2
352900;2
352900;4
352900;1
352900;3
352930;2
352930;2
352930;2
353010;2
353030;1
353050;1
353070;3
353070;1
353070;3
353080;3
353080;3
353080;1
353080;3
353140;2
353180;2
353190;1
353190;1
353340;2
353340;3
353390;3
353440;2
353440;2
353440;2
353460;2
353460;3
353470;2
353500;1
353550;2
353550;1
353550;2
353650;2
353670;3
353710;2
353710;2
353730;2
353730;1
353730;3
353740;1
353760;1
353800;2
353800;3
353870;2
353870;2
353870;2
353870;2
353870;2
353870;3
353890;1
353890;3
353920;2
353930;1
354070;1
354075;1
354075;2
354075;4
354100;2
354100;2
354140;2
354140;4
354140;1
354140;3
354260;2
354340;2
354340;2
354340;2
354340;4
354340;1
354340;3
354390;2
354390;2
354390;1
354390;3
354425;3
354520;2
354530;1
354580;2
354580;1
354580;3
354660;2
354730;2
354780;2
354800;2
354850;2
354850;3
354850;2
354850;2
354870;2
354870;2
354890;2
354890;3
354910;2
354940;1
354970;2
354980;2
354980;2
354980;4
354980;2
354980;1
354980;4
354980;2
354990;2
354990;2
354990;1
355030;2
355030;2
355030;2
355030;2
355030;2
355030;2
355030;2
355030;3
355040;3
355070;3
355070;2
355070;3
355100;2
355170;2
355170;4
355170;1
355170;3
355220;2
355220;1
355220;3
355240;2
355240;2
355240;2
355240;2
355240;2
355240;3
355280;3
355280;2
355330;2
355340;1
355340;3
355370;2
355370;3
355410;2
355410;2
355410;2
355410;2
355500;3
355500;2
355500;3
355540;2
355540;3
355540;2
355540;3
355620;2
355650;2
355700;1
355710;3
355710;2
355710;2
355710;3
410190;1
410200;2
410430;1
410480;2
410480;2
410640;1
410720;2
410750;2
410830;2
410830;2
410830;2
410830;2
410830;1
410830;3
410860;2
410980;1
410980;3
411180;1
411180;3
411270;2
411370;1
411370;2
411370;3
411370;2
411370;1
411370;3
411460;2
411520;2
411520;2
411520;1
411520;2
411520;1
411520;3
411580;2
411690;2
411710;1
411750;2
411820;4
411820;1
411840;1
411840;4
411880;1
412000;1
412050;1
412050;3
412405;2
412490;1
412625;2
412625;2
412625;1
412730;1
412800;1
412810;2
420820;2
421290;1
500110;1
500110;1
500220;1
500270;1
500270;1
500270;4
500270;1
500270;1
500270;4
500270;1
500270;1
500270;2
500320;2
500320;1
500330;1
500370;1
500370;1
500370;4
500370;1
500370;2
500430;1
500430;1
500570;1
500660;2
500790;1
500830;1
500830;2
500830;2
500830;4
500830;1
510025;1
510025;1
510263;2
510325;4
510340;2
510340;1
510340;2
510340;4
510340;1
510340;2
510340;1
510760;1
510790;1
510790;3
510790;1
510790;1
510790;2
510790;1
510790;4
510795;1
510840;2
510840;3
510840;1
510840;1
520025;3
520025;1
520025;2
520025;3
520110;2
520110;3
520110;3
520110;2
520110;2
520110;2
520110;3
520140;1
520140;1
520140;1
520140;1
520140;2
520140;2
520140;1
520140;2
520140;2
520140;2
520450;2
520450;2
520450;1
520450;2
520510;2
520510;2
520510;2
520540;2
520549;3
520549;1
520549;3
520800;3
520800;2
520800;2
520800;3
520860;2
520860;1
520860;1
520870;1
520870;1
520870;1
520870;1
520870;2
520870;1
520870;1
520870;2
520870;2
520870;2
520880;2
520880;2
520910;2
521000;2
521020;1
521150;1
521180;2
521190;2
521190;3
521190;2
521190;1
521190;1
521190;3
521190;2
521250;2
521250;2
521250;1
521250;3
521310;2
521310;2
521310;3
521310;3
521380;2
521450;1
521523;3
521523;2
521560;3
521570;2
521730;1
521740;1
521760;3
521800;1
521830;3
521830;1
521880;2
521880;2
521880;1
521880;2
521880;2
521975;2
521975;1
521975;3
522040;1
522045;1
522045;2
522045;1
522045;1
522140;1
522140;1
522140;1
522185;2
522185;2
522185;2
522185;3
530010;2
530010;3
530010;3
530010;3
530010;1
530010;3
530010;4
530010;3
